IS415-GAA - Take-home Assignment 2: Spatio-temporal Analysis of COVID-19 Vaccination Trends at the Sub-district Level, DKI Jakarta
…
Code

# grouping based on the sub-district and time_period

vr <- combined_df %>%
  inner_join(jkt2019, by=c("SUBDISTRICT" = "Sub_District")) %>%
  group_by(SUBDISTRICT, TIME_PERIOD) %>%
  dplyr::summarise(`vaccination_rates` = ((sum(TARGET-YET_TO_BE_VACINATED)/sum(TARGET))*100)) %>%
  
  #afterwards, pivots the table based on the Dates, showing the cumulative death rate
  ungroup() %>% pivot_wider(names_from = TIME_PERIOD,
              values_from = vaccination_rates)
vr

# A tibble: 261 × 13
   SUBDISTRICT   2021-…¹ 2021-…² 2021-…³ 2021-…⁴ 2021-…⁵ 2021-…⁶ 2022-…⁷ 2022-…⁸
   <chr>           <dbl>   <dbl>   <dbl>   <dbl>   <dbl>   <dbl>   <dbl>   <dbl>
 1 ANCOL            34.9    49.2    61.8    72.2    75.1    77.0    78.9    80.6
 2 ANGKE            36.1    53.3    64.8    74.3    77.7    79.7    80.9    81.7
 3 BALE KAMBANG     25.1    37.3    57.2    70.2    74.0    76.7    78.3    79.5
 4 BALI MESTER      33.9    48.9    62.2    74.4    78.3    80.4    81.7    82.8
 5 BAMBU APUS       32.3    47.8    64.4    77.0    81.0    82.5    83.4    84.5
 6 BANGKA           34.0    52.6    61.3    73.4    78.1    79.9    80.7    81.5
 7 BARU             44.4    58.1    67.9    79.6    82.9    84.2    85.0    85.8
 8 BATU AMPAR       26.7    40.7    58.6    70.7    74.6    77.1    78.8    80.2
 9 BENDUNGAN HI…    39.5    54.0    62.7    75.8    79.1    80.6    81.4    82.3
10 BIDARA CINA      27.6    40.9    57.9    71.2    75.3    77.1    78.2    79.2
# … with 251 more rows, 4 more variables: `2022-03-02` <dbl>,
#   `2022-04-01` <dbl>, `2022-05-01` <dbl>, `2022-06-01` <dbl>, and abbreviated
#   variable names ¹​`2021-07-01`, ²​`2021-08-01`, ³​`2021-09-01`, ⁴​`2021-10-01`,
#   ⁵​`2021-11-01`, ⁶​`2021-12-01`, ⁷​`2022-01-01`, ⁸​`2022-02-01`
…
Code

gi_stars <- vr_nb %>%
  group_by(Date) %>%
  mutate(gi_star = local_gstar_perm(
    Vaccination_Rate, nb, wt, nsim=99)) %>%
      tidyr::unnest(gi_star)

After running 100 simulations, the code chunk below shows our newly created df.

Code

gi_stars

# A tibble: 3,132 × 13
# Groups:   Date [12]
   Date       Sub_Di…¹ Vacci…² wt    nb    gi_star    e_gi  var_gi p_value p_sim
   <date>     <chr>      <dbl> <lis> <lis>   <dbl>   <dbl>   <dbl>   <dbl> <dbl>
 1 2021-07-01 KEAGUNG…    32.7 <dbl> <int>   1.33  0.00385 6.66e-8 1.83e-1  0.26
 2 2021-07-01 GLODOK      50.5 <dbl> <int>   3.81  0.00380 4.47e-8 1.38e-4  0.02
 3 2021-07-01 HARAPAN…    31.8 <dbl> <int>  -0.846 0.00386 5.54e-8 3.97e-1  0.38
 4 2021-07-01 CEMPAKA…    32.6 <dbl> <int>  -1.15  0.00386 6.01e-8 2.50e-1  0.2 
 5 2021-07-01 PASAR B…    47.9 <dbl> <int>   2.72  0.00382 4.15e-8 6.43e-3  0.02
 6 2021-07-01 KARANG …    34.8 <dbl> <int>   0.926 0.00387 4.84e-8 3.55e-1  0.34
 7 2021-07-01 MANGGA …    35.1 <dbl> <int>   0.831 0.00383 4.12e-8 4.06e-1  0.44
 8 2021-07-01 PETOJO …    34.7 <dbl> <int>  -0.105 0.00385 6.23e-8 9.16e-1  0.88
 9 2021-07-01 SENEN       39.6 <dbl> <int>   0.862 0.00386 3.45e-8 3.89e-1  0.48
10 2021-07-01 BUNGUR      37.4 <dbl> <int>  -0.150 0.00383 4.53e-8 8.81e-1  0.92
# … with 3,122 more rows, 3 more variables: p_folded_sim <dbl>, skewness <dbl>,
#   kurtosis <dbl>, and abbreviated variable names ¹​Sub_District,
#   ²​Vaccination_Rate
…
