IS415-GAA – take-home_assgn3
…
#retrieve available themes that we can refer to
avail_themes <-search_themes(token)
write_rds(avail_themes, "data/rds/available_themes.rds")

By reading the according file, I sorted the themes in alphabetical order, for easier reference.

#read the file for available themes
avail_themes<-readRDS("data/rds/available_themes.rds")

#sort by alphabetical order
avail_themes<-avail_themes[order(avail_themes$THEMENAME),]
avail_themes

# A tibble: 193 × 5
   THEMENAME                                     QUERYNAME ICON  CATEG…¹ THEME…²
   <chr>                                         <chr>     <chr> <chr>   <chr>  
 1 ABC Waters Completed                          abcwater… abcl… Enviro… PUBLIC…
 2 ABC Waters Construction                       abcwater… tend… Enviro… PUBLIC…
 3 ABC Waters Sites                              abcwater… abcl… Enviro… PUBLIC…
 4 Active Cemeteries                             activece… circ… Enviro… NATION…
 5 Aedes Mosquito Breeding Habitats - Central    breeding… Pict… Health  NATION…
 6 Aedes Mosquito Breeding Habitats - North East breeding… Pict… Health  NATION…
 7 Aedes Mosquito Breeding Habitats - North West breeding… Pict… Health  NATION…
 8 Aedes Mosquito Breeding Habitats - South East breeding… Pict… Health  NATION…
 9 Aedes Mosquito Breeding Habitats - South West breeding… Pict… Health  NATION…
10 After Death Facilities                        afterdea… coff… Enviro… NATION…
# … with 183 more rows, and abbreviated variable names ¹​CATEGORY, ²​THEME_OWNER
…
