IS415-GAA - Take-home Assignment 1: Application of Spatial Point Patterns Analysis
…
Code

wp_nga <- read_csv("data/aspatial/wpdx.csv") %>%
  filter(clean_adm1 %in% c("Osun"))

Next, we need to convert the aspatial data into sf data.frame.

To do so, it requires two steps. First, we need to convert the wkt field into sfc field by using st_as_sfc() data type.

Code

wp_nga$Geometry = st_as_sfc(wp_nga$`new_georeferenced_column_`)
wp_nga

# A tibble: 35 × 75
   row_id source     lat_deg lon_deg report_date         statu…¹ water…² water…³
    <dbl> <chr>        <dbl>   <dbl> <dttm>              <chr>   <chr>   <chr>  
 1 225950 Federal M…    7.43    4.26 2015-05-05 00:00:00 Yes     Boreho… Well   
 2 225524 Federal M…    7.78    4.56 2015-04-22 00:00:00 Yes     Protec… Well   
 3 197014 Federal M…    7.49    4.53 2015-04-30 00:00:00 Yes     Boreho… Well   
 4 225173 Federal M…    7.93    4.73 2015-05-02 00:00:00 Yes     Boreho… Well   
 5 225843 Federal M…    7.74    4.44 2015-05-08 00:00:00 Yes     Boreho… Well   
 6 235508 Federal M…    7.15    4.64 2015-04-27 00:00:00 Yes     Protec… Well   
 7 197708 Federal M…    7.87    4.72 2015-05-13 00:00:00 Yes     Boreho… Well   
 8 195041 Federal M…    7.73    4.45 2015-06-17 00:00:00 Yes     Protec… Spring 
 9 225222 Federal M…    7.81    4.15 2015-05-14 00:00:00 Yes     Protec… Spring 
10 460770 GRID3         7.4     4.33 2018-06-13 00:00:00 Unknown Boreho… Well   
# … with 25 more rows, 67 more variables: water_tech_clean <chr>,
#   `_water_tech_category` <chr>, facility_type <chr>,
#   clean_country_name <chr>, clean_adm1 <chr>, clean_adm2 <chr>,
#   clean_adm3 <lgl>, clean_adm4 <lgl>, install_year <dbl>, installer <chr>,
#   rehab_year <lgl>, rehabilitator <chr>, management_clean <chr>,
#   status_clean <chr>, pay <chr>, fecal_coliform_presence <lgl>,
#   fecal_coliform_value <dbl>, subjective_quality <chr>, activity_id <chr>, …

Next, we will convert the tibble data.frame into an sf object by using st_sf(). It is also important for us to include the referencing system of the data into the sf object.

Code

wp_sf <- st_sf(wp_nga, crs=4326)
wp_sf

Simple feature collection with 35 features and 74 fields
Geometry type: POINT
Dimension:     XY
Bounding box:  xmin: 4.146705 ymin: 7.153846 xmax: 5 ymax: 8.031187
Geodetic CRS:  WGS 84
# A tibble: 35 × 75
   row_id source     lat_deg lon_deg report_date         statu…¹ water…² water…³
 *  <dbl> <chr>        <dbl>   <dbl> <dttm>              <chr>   <chr>   <chr>  
 1 225950 Federal M…    7.43    4.26 2015-05-05 00:00:00 Yes     Boreho… Well   
 2 225524 Federal M…    7.78    4.56 2015-04-22 00:00:00 Yes     Protec… Well   
 3 197014 Federal M…    7.49    4.53 2015-04-30 00:00:00 Yes     Boreho… Well   
 4 225173 Federal M…    7.93    4.73 2015-05-02 00:00:00 Yes     Boreho… Well   
 5 225843 Federal M…    7.74    4.44 2015-05-08 00:00:00 Yes     Boreho… Well   
 6 235508 Federal M…    7.15    4.64 2015-04-27 00:00:00 Yes     Protec… Well   
 7 197708 Federal M…    7.87    4.72 2015-05-13 00:00:00 Yes     Boreho… Well   
 8 195041 Federal M…    7.73    4.45 2015-06-17 00:00:00 Yes     Protec… Spring 
 9 225222 Federal M…    7.81    4.15 2015-05-14 00:00:00 Yes     Protec… Spring 
10 460770 GRID3         7.4     4.33 2018-06-13 00:00:00 Unknown Boreho… Well   
# … with 25 more rows, 67 more variables: water_tech_clean <chr>,
#   `_water_tech_category` <chr>, facility_type <chr>,
#   clean_country_name <chr>, clean_adm1 <chr>, clean_adm2 <chr>,
#   clean_adm3 <lgl>, clean_adm4 <lgl>, install_year <dbl>, installer <chr>,
#   rehab_year <lgl>, rehabilitator <chr>, management_clean <chr>,
#   status_clean <chr>, pay <chr>, fecal_coliform_presence <lgl>,
#   fecal_coliform_value <dbl>, subjective_quality <chr>, activity_id <chr>, …
…
